name="Ancient Era"
normal_or_historical_nations=yes
replace_path="history/countries/"
replace_path="history/provinces/"
replace_path="history/diplomacy/"
replace_path="history/wars/"
replace_path="common/countries/"
replace_path="common/country_tags/"
replace_path="common/bookmarks/"
replace_path="common/technologies/"
supported_version="1.34.*"
path="C:/Users/tetra/OneDrive/Documents/Paradox Interactive/Europa Universalis IV/mod/TetraAncient"