#1055 - Verkne-Angarsky



capital = "Kirenga"
trade_goods = unknown
hre = no
base_tax = 1
base_production = 1
base_manpower = 1
native_size = 10
native_ferocity = 1
native_hostileness = 3



discovered_by = nomad_group
discovered_by = BRT

1632.1.1 = { discovered_by = RUS }

1632.9.25 = {
	
	
	
	
}
1657.1.1 = {  }
