#1056 - Barguzinsky

discovered_by = nomad_group



capital = "Barguzin"
trade_goods = unknown
hre = no
base_tax = 1 
base_production = 1
base_manpower = 1
native_size = 10
native_ferocity = 1
native_hostileness = 3

1632.1.1 = { discovered_by = RUS }

1653.1.1 = {
	
	
	
	
} # Pyotr Beketov
1678.1.1 = {  }
