#1060 - Irkutsk



capital = "Irkutsk"
trade_goods = unknown
hre = no
base_tax = 1 
base_production = 1
base_manpower = 1
native_size = 10
native_ferocity = 1
native_hostileness = 3



discovered_by = nomad_group
discovered_by = BRT


1633.1.1 = {
	discovered_by = RUS
	
	
	
	
	is_city = yes
}
1634.1.1 = {  }
