#1090 - Eora






capital = "Eora"
trade_goods = fish
hre = no
is_city = yes
base_tax = 1
base_production = 1
base_manpower = 1
native_size = 10
native_ferocity = 1
native_hostileness = 2
extra_cost = 8
center_of_trade = 1
discovered_by = aboriginal_tech

1770.1.1 = { discovered_by = GBR } # James Cook
1788.1.26 = {
	discovered_by = GBR
	
	
	
	
	
	is_city = yes
	trade_goods = naval_supplies
	capital = "Sydney"
}
#1813.1.1 = {  }
