#1157 - Borno






capital = "Gatiga"
is_city = yes
base_manpower = 1
trade_goods = grain
hre = no
base_tax = 1 
base_production = 1
discovered_by = sub_saharan

extra_cost = 16
center_of_trade = 2

1458.1.1 = { unrest = 5 } #Civil War for control of position of Mai
1459.1.1 = { unrest = 6 } #Civil War won by Sefuwa clan
1470.1.1 = { unrest = 4 } #Bulaba raids
1472.1.1 = { capital = "Gazargamu" } #capital relocated
1502.1.1 = { unrest = 6 } #Bulaba raids
1503.1.1 = { unrest = 0 } #Bulaba raids repulsed
1521.1.1 = { unrest = 6 } #Bulaba raids
1523.1.1 = { unrest = 0 } #Bulaba raids repulsed
1683.1.1 = { unrest = 8 } #Jukun Invasion
1684.1.1 = { unrest = 0 } #Jukun Invasion Repelled
1753.1.1 = { unrest = 8 } #Migration of Kanembu into Borno in wake of Wadai raids
1755.1.1 = { unrest = 0 }
1790.1.1 = { unrest = 3 } #Islamic revival led by Usman dan Fodio begins to challenge Mai legitimacy
1804.1.1 = { discovered_by = SOK }
1808.1.1 = {  } # Conquered during the Fulani War
1810.1.1 = {  }
1814.1.1 = { capital = "Kukawa" } # Estblished by Muhammad al-Kanem
