#Ume, Åsele, Piteå Lappmarks

capital = "Arvidsjaur"


hre = no
base_tax = 1 
base_production = 1
trade_goods = unknown
base_manpower = 1
native_hostileness = 1
native_size = 3
native_ferocity = 2
discovered_by = eastern
discovered_by = western


1440.1.1 = {
	
	 
	
	is_city = yes
	add_local_autonomy = 70
	trade_goods = fur
}
1607.1.1 = { capital = "Lycksele" }
1640.1.2 = {  }
1640.1.2 = {  }
