#1838 - Hefei






capital = "Hefei"
trade_goods = grain
hre = no
base_tax = 1 
base_production = 1
base_manpower = 1
is_city = yes



discovered_by = chinese
discovered_by = nomad_group

1595.1.1 = { discovered_by = SPA }

1645.6.14 = {
	
	
	
}
