#1949 - Penukonda





capital = "Penukonda"
trade_goods = cotton
hre = no
base_tax = 1
base_production = 1
base_manpower = 1
is_city = yes



 #One of the great forts of the East
discovered_by = indian
discovered_by = muslim 
discovered_by = ottoman
discovered_by = nomad_group
discovered_by = chinese

1498.1.1 = { discovered_by = POR }
1645.1.1 = {  } # Conquered by Golconda
1646.1.1 = {
	
	
	remove_core = VIJ

} # Conquered by Golconda
1686.1.1 = {  }
1687.1.1 = {
	
	
	remove_core = GOC
}
1712.1.1 = {  }	#Viceroyalty of the Deccan
1724.1.1 = {
	
	
	remove_core = MUG
} # Asif Jah declared himself Nizam-al-Mulk
1800.1.1 = {
	
	
	
	remove_core = DEC
}	#Ceded districts
