#Torzhok





hre = no
base_tax = 1
base_production = 1
trade_goods = naval_supplies
base_manpower = 1
capital = "Torzhok"
is_city = yes

discovered_by = eastern
discovered_by = western
discovered_by = nomad_group


1478.1.15 = {
	 
	
	
	remove_core = NOV 
}
1503.4.1 = {
	
	
	
	remove_core = MOS 
}
1598.1.7 = { unrest = 5 } # "Time of troubles"
1613.3.3 = { unrest = 0 } # Romanov dynasty
