#1966 - Chelyaba



capital = "Chelyaba"


trade_goods = fur
hre = no
base_tax = 1 
base_production = 1
base_manpower = 1
is_city = yes






discovered_by = nomad_group
discovered_by = muslim

unrest = 15

1468.1.1 = {
	
	 
	discovered_by = SIB
	remove_core = NOG 
	unrest = 0 
} # Sibir Khanate formed from northern Uzbek lands
1582.10.23 = {
	discovered_by = RUS
	 
	
	 
	remove_core = SIB 
} # Yermak Timofeevich
1736.1.1 = { capital = "Chelyabinsk"   remove_core = BSH }
1773.9.13 = { revolt = { type = anti_tax_rebels size = 1 name = "Yemelyan Pugachev" }  unrest = 6 } # Pugachev rebellion
1775.2.1 = { revolt = {}  unrest = 0 } # Pugachev is captured
