#1971 - Tsaritsyn


 


hre = no
base_tax = 1 
base_production = 1
trade_goods = livestock 
base_manpower = 1
capital = "Sary-Su"
is_city = yes

discovered_by = eastern
discovered_by = western
discovered_by = nomad_group
discovered_by = ottoman
discovered_by = muslim

1502.6.1 = {
	
	
	
	remove_core = GOL
} # Golden Horde destroyed by Crimea
1556.6.2 = { 
	
	
	 
	remove_core = AST
} # Russians acquire Volga after fall of Astrakhan
1589.1.1 = { capital = "Tsaritsyn" }
1600.1.1 = {   }
1670.3.1 = { revolt = { type = anti_tax_rebels size = 2 name = "Stepan Razin" }  unrest = 6 } # Razin rebellion
1671.4.14 = { revolt = { }  unrest = 0 } # Razin captured
1773.9.13 = { revolt = { type = anti_tax_rebels size = 2 name = "Yemelyan Pugachev" }  unrest = 6 } # Pugachev rebellion
1775.2.1 = { revolt = {}  unrest = 0 } # Pugachev is captured
