#2028 - Mahur





capital = "Mahur"
trade_goods = tropical_wood
hre = no
base_tax = 1
base_production = 1
base_manpower = 1
is_city = yes

discovered_by = indian
discovered_by = nomad_group
discovered_by = muslim
discovered_by = ottoman
discovered_by = chinese

1453.1.1 = {
	
	revolt = {
		type = nationalist_rebels
		size = 0
	}
} #Governor of Telingana revolts, invites Kalji intervention
1456.1.1 = {  revolt = { } }	#End of Revolt
1490.1.1 = {
	
	
	remove_core = BAH
}# The Breakup of the Bahmani sultanate
1498.1.1 = { discovered_by = POR }
1574.1.1 = {
	
	
	
} # captured by Ahmednagar
1596.1.1 = {
	
	
	
} # captured by Mughal Empire
1712.1.1 = {  }	#Viceroyalty of the Deccan
1724.1.1 = {
	
	
	remove_core = MUG
} # Asif Jah declared himself Nizam-al-Mulk
