#2050 - Chanda





capital = "Ballarsah"
trade_goods = tropical_wood
hre = no
base_tax = 1 
base_production = 1
base_manpower = 1
is_city = yes





discovered_by = chinese
discovered_by = indian
discovered_by = nomad_group
discovered_by = muslim 
discovered_by = ottoman

1690.1.1 = { discovered_by = ENG }
1707.5.12 = { discovered_by = GBR }

1757.1.1 = {
	
	
	
}
