#2057 - Bhelsa





capital = "Bhelsa"
trade_goods = cloth
hre = no
base_tax = 1
base_production = 1
base_manpower = 1
is_city = yes

add_rajputs_or_marathas_or_nobles_effect = yes
discovered_by = indian
discovered_by = muslim
discovered_by = ottoman
discovered_by = nomad_group
discovered_by = chinese

1498.1.1 = { discovered_by = POR }

1531.1.1 = {  } # Conquered by Ahmad Shahis
1532.1.1 = {  } # Conquered by Ahmad Shahis
1535.1.1 = {
	
	
} # Mughal campaign
1537.1.1 = {
	
	
	remove_core = MUG
} # Reverts to Gujarati control and is granted independence
1543.1.1 = {
	
	
	
} # Conquered by Sher Shah Sur
1545.5.22 = {
	
	
	remove_core = BNG
} # Death of Sher Shah, governor declares independence
1561.3.1 = {  } #Pir Mohammad Khan
1561.8.1 = {  } #Baz Bahadur regains controll as Pir Mohammad Khan is recalled
1562.5.1 = {  } #Reconquered by Akbar
1562.6.1 = {
	
	
} # Annexed by Mughal Empire
1564.1.1 = {  revolt = { type = noble_rebels } }	#Revolt of Uzbek commanders in Malwa
1565.1.1 = {  revolt = { } }	#Revolt beaten down
1737.1.1 = {
	
	
	
	capital = "Bhopal"
	remove_core = MUG
}
1818.6.3 = {
	
	
	
	remove_core = GWA
}
