#206 - Galicia

		#Juan II of Castille





hre = no
base_tax = 1
base_production = 1
trade_goods = fish
base_manpower = 1
capital = "Corunna" 
is_city = yes
 # Santiago de Compostela pilgrimage
discovered_by = eastern
discovered_by = western
discovered_by = muslim
discovered_by = ottoman


1467.1.1 = { unrest = 4 } # Second war of the "irmandiņos"
1470.1.1 = { unrest = 0 } # End of the Second war of the "irmandiņos"
1475.6.2 = {  }
1476.3.2 = {  }
1479.1.1 = { remove_core = GAL }
1516.1.23 = {	
	
	
} # King Fernando dies, Carlos inherits Aragon and becomes co-regent of Castilla
1713.4.11 = { remove_core = CAS }
1808.6.6 = { revolt = { type = pretender_rebels size = 2 leader = "Fernando" }  }
1809.1.1 = { revolt = {}  }
1812.10.1 = { revolt = { type = pretender_rebels size = 2 leader = "Fernando" }  }
1813.12.11 = { revolt = {}  }
