#2096 - Damin





capital = "Deogarh"
trade_goods = ivory
hre = no
base_tax = 1 
base_production = 1
base_manpower = 1
is_city = yes


add_brahmins_or_church_effect = yes
discovered_by = indian
discovered_by = nomad_group
discovered_by = muslim 
discovered_by = ottoman
discovered_by = chinese
add_local_autonomy = 50

1487.1.1 = {
	
	
}
1627.1.1 = { discovered_by = POR }
1674.1.1 = {
	
	
	
}
1707.3.15 = {
	
	
	
	remove_core = MUG
}
1760.1.1 = {
	
	
	
} # Given to GBR by Mir Qasim
