# 2136 - Xuanhua






capital = "Xuanhua"
trade_goods = grain
hre = no
base_tax = 1 
base_production = 1
base_manpower = 1
is_city = yes
# #the Nine Garrisons




discovered_by = chinese
discovered_by = nomad_group

1608.1.1 = { discovered_by = SPA }

1644.1.1 = {
	
	
	
} # Li Zicheng's Shun empire
1644.4.22 = {
	
	
	
}