# 2148 - Shaoxin






capital = "Shaoxin"
trade_goods = paper
hre = no
base_tax = 1 
base_production = 1
base_manpower = 1
is_city = yes




discovered_by = chinese
discovered_by = nomad_group

1519.1.1 = { discovered_by = POR } # Tome Pires

1646.2.1 = {
	
	
	
}