# 2165 - Pu'er






capital = "Pu'er"
trade_goods = tea
hre = no
base_tax = 1 
base_production = 1
base_manpower = 1
is_city = yes




discovered_by = chinese
discovered_by = nomad_group
discovered_by = indian

1655.1.1 = { discovered_by = SPA }#Novus Atlas Sinensis

1662.4.1 = {
	
	
	
} # Three Feudatories - Wu Sangui titled as Prince of Pingxi in Yunnan
1681.10.1 = {
	
	
	
}