# 2181 - Pingliang






capital = "Pingliang"
trade_goods = livestock
hre = no
base_tax = 1
base_production = 1
base_manpower = 1
is_city = yes

discovered_by = chinese
discovered_by = nomad_group


1644.1.1 = {
	
	
} # Li Zicheng's Shun empire
1645.2.1 = {
	
	
	
}
1682.1.1 = { discovered_by = SPA } #Ferdinand Verbiest