#2035 - Urmia





capital = "Urmiyeh"
trade_goods = wine
hre = no
base_tax = 1 
base_production = 1
base_manpower = 1
is_city = yes



discovered_by = east_african
discovered_by = muslim
discovered_by = ottoman
discovered_by = eastern
discovered_by = western
discovered_by = nomad_group


1458.9.1 = { revolt = { type = pretender_rebels size = 0 name = "Hasan Ali's Faction" leader = "Hasan Ali" }  } # Civil war in Qara Quyunlu
1458.12.1 = { revolt = {}  }
1468.1.1 = {
	
	
	
	remove_core = QAR
} # The Ak Koyunlu expands their territory
1501.7.1 = {
	
	
	
	remove_core = AKK
} # Ismail conquers Tabriz and defeats Alwand
1534.7.13 = {  } # Occupation of Tabriz
1536.1.1 = {  } # End of Ottoman-Safavid War
1548.7.27 = {  } # Occupation of Tabriz
1549.12.1 = {  } # End of Ottoman-Safavid War
1585.9.22 = {  } # Ottoman conquest
1590.3.21 = {   } # Peace of Istanbul
1603.9.26 = {  } # Persian reconquest
1612.11.20 = {  remove_core = TUR } # Part of Persia
1747.1.1 = {
	
	
} # Shah Nadir is killed, local khanates emerged
#Khanate Abolished in 1865
