#2327 - Maan



_arabic

capital = "Maan"
trade_goods = livestock
hre = no
base_tax = 1 
base_production = 1
base_manpower = 1
is_city = yes


discovered_by = muslim
discovered_by = ottoman
discovered_by = eastern
discovered_by = western
discovered_by = nomad_group
discovered_by = indian
discovered_by = east_african


1516.8.24 = {
	
	
	
} # Part of the Ottoman Empire
1665.1.1 = { unrest = 4 }
1669.1.1 = { unrest = 2 } # Ottoman attempts to pacify unruly tribes 
1670.1.1 = { unrest = 0 }
1750.1.1 = {  }
