#2377- Teuk Khmao





capital = "Oc Eo"
trade_goods = fish
hre = no
base_tax = 1
base_production = 1
base_manpower = 1
is_city = yes




discovered_by = chinese
discovered_by = indian
discovered_by = muslim
discovered_by = ottoman

1535.1.1 = { discovered_by = POR }

1769.1.1 = { unrest = 6 } # Tay Son Rebellion
1788.9.1 = {
	unrest = 0
	
	
	
	remove_core = KHM
} # Nguyen recovered the land
