#2399 - Pagan





capital = "Pagan"
trade_goods = tropical_wood
hre = no
base_tax = 1 
base_production = 1
base_manpower = 1
is_city = yes




discovered_by = chinese
discovered_by = indian


1527.1.1 = {
	
	
	
	remove_core = AVA
}
1535.1.1 = { discovered_by = POR }
1554.1.1 = {  }
1555.1.22 = {  }
1563.4.1 = {	
	
	remove_core = SST
}
