#2404 - Mergui





capital = "Mergui"
trade_goods = chinaware
hre = no
base_tax = 1 
base_production = 1
base_manpower = 1
is_city = yes




discovered_by = chinese
discovered_by = indian
discovered_by = muslim
discovered_by = ottoman

1535.1.1 = { discovered_by = POR }

1564.1.1 = {
	
	
	
}
1605.5.17 = {
	
	
}
1614.1.1 = {   } # Taungu regained Tenasserim
1745.11.1 = {   }
1768.1.1 = {   }
1794.1.1 = { remove_core = AYU }
