#2406 - Ingil





hre = no
base_tax = 1
base_production = 1
trade_goods = wine
base_manpower = 1
capital = "Kyzy-Kermen"
is_city = yes
add_local_autonomy = 25





discovered_by = western
discovered_by = eastern
discovered_by = muslim
discovered_by = ottoman
discovered_by = nomad_group


1444.1.1 = {
	
	
	
	
	 
}
1569.7.1 = {
	
	
	remove_core = LIT
	
} # Union of Lublin
1570.1.1 = {    remove_core = CRI   } # Don Cossacks settle in the area, build fortified capital
1764.1.1 = {    } # Sich liquidated
