#2420 - Agyidel





hre = no
base_tax = 1 
base_production = 1
trade_goods = iron
base_manpower = 1
capital = "Agyidel"
is_city = yes




discovered_by = eastern
discovered_by = muslim
discovered_by = ottoman
discovered_by = nomad_group


1520.1.1 = {
	
	 
	
	remove_core = NOG 
} 
1552.10.2 = {
	 
	
	
	remove_core = KAZ 
} # Russian conquest of Kazan
1735.8.31 = {   capital = "Orenburg" remove_core = BSH }
