# - Ouarzazate





capital = "Ouarzazate"
trade_goods = grain
hre = no
base_tax = 1 
base_production = 1
base_manpower = 1
is_city = yes






discovered_by = western
discovered_by = muslim
discovered_by = ottoman

1444.1.1 = {
	
	
	
}
1465.1.1 = { unrest = 5 } #Marinid Sultan killed by mob. Mohammed ibn Ali Amrani-Joutey (Idrisid) proclaims himself Sultan. Unrest in the entire country. 
1472.1.1 = {   unrest = 0 } #Wattasids take control over Fez, nominal ruler over much of Morocco.
1549.1.1 = {
	
	
	remove_core = TFL
}	#Fall of Fez
1603.8.1 = { unrest = 5 } #Death of al-Mansur, long period of instability follows
1629.1.1 = {
	
	
	unrest = 0
}
1631.1.1 = {
	
	
	
}	#Alaouites
1668.9.7 = {
	
	
} #Alaouites reunifies the country