# No previous file for Doeg



capital = "Doeg"
trade_goods = unknown
hre = no
base_tax = 1
base_production = 1
base_manpower = 1
native_size = 5
native_ferocity = 1
native_hostileness = 2
tribal_


discovered_by = north_american


1584.1.1 = { discovered_by = ENG }

1644.1.1 = {
	 
	 
	
	 
	trade_goods = tobacco
	is_city = yes
	 
} #Settlement of the Northern Neck after second Anglo-Powhatan war
1669.1.1 = {  }
1707.5.12 = {
	discovered_by = GBR
	
	
	
	remove_core = ENG
} 
1749.5.2 = { capital = "Alexandria" } #settlements expand west
1764.7.1 = {  unrest = 6 } # Growing unrest
1776.7.4 = {
	
	
	
} # Declaration of independence
1782.11.1 = { unrest = 0 remove_core = GBR } # Preliminary articles of peace, the British recognized American independence

