# No previous file for Manahoac



capital = "Manahoac"
trade_goods = unknown
hre = no
base_tax = 1
base_production = 1
base_manpower = 1
native_size = 5
native_ferocity = 1
native_hostileness = 2
discovered_by = north_american

1444.1.1 = { tribal_ }
1671.1.1 = { discovered_by = ENG } # Abraham Wood
1672.1.1 = {
 	
	
	 
} #Taken by Iroquois in Beaver Wars.
1707.5.12 = { discovered_by = GBR }
1750.1.1 = {
	
	
	
	
	
} # British settlers cross the Appalachians
1764.7.1 = {
	
	unrest = 6
} # Growing unrest
1776.7.4 = {
	
	
	
} # Declaration of independence
1782.11.1 = { remove_core = GBR unrest = 0 } # Preliminary articles of peace, the British recognized American independence
