# No previous file for Tionontate




is_city = yes


capital = "Tionontate"
trade_goods = tobacco #were called the Tobacco indians
hre = no
base_tax = 1 
base_production = 1
base_manpower = 1
native_size = 5
native_ferocity = 1
native_hostileness = 2



discovered_by = north_american

1609.1.1 = { discovered_by = FRA } # Samuel de Champlain

1649.1.1 = {
	
	
	
	
} #Taken by Iroquois in Beaver Wars.
1650.1.1 = { 
	
	
	is_city = NO
	remove_core = ARN
	
	tribal_
} #Anishinabe expands post-beaver wars in deserted huron lands. 



1664.1.1 = { discovered_by = ENG }
1707.5.12 = { discovered_by = GBR } 

1726.1.1 = {  }
1763.2.10 = { remove_core = FRA }