# No previous file for Wappus






capital = "Wappus"
trade_goods = unknown
hre = no
base_tax = 1 
base_production = 1
base_manpower = 1
native_size = 5
native_ferocity = 1
native_hostileness = 2



discovered_by = north_american


1732.1.1 = { discovered_by = FRA } # Pierre Gaultier de Varennes

1732.1.1 = {
	
	
	
	_french
	
	is_city = yes
	trade_goods = fur
 } #Fort St Charles
1763.2.10 = {
	discovered_by = GBR
	
	
	
	remove_core = FRA
	
	
} # Treaty of Paris
1763.10.9 = {
	
	
	
	remove_core = GBR
	
	
} # Royal proclamation, Britan recognize native lands (as protectorates)
1808.1.1 = {
	
	
	
	
	
} #French fur traders from Canada establish trading posts (part of Hudson Bay territory at the time, Hudson Bay watershed)
1818.10.20 = {
	
	
	
	remove_core = GBR
	
	
} #ceded in the treaty of 1818, 
