#261 - Halicz



capital= "Halicz"


trade_goods = grain
hre = no
base_tax = 1
base_production = 1
base_manpower = 1
is_city = yes


discovered_by = KAZ
discovered_by = CRI
discovered_by = GOL
discovered_by = AST
discovered_by = QAS
discovered_by = eastern
discovered_by = western
discovered_by = muslim
discovered_by = ottoman


1492.1.1 = { unrest = 0 } 
1569.7.1 = {
	
	
	remove_core = POL
	
} # Union of Lublin
1572.1.1 = { unrest = 6 } # Sigismund II dies
1588.1.1 = { revolt = { type = revolutionary_rebels size = 0 }  } # Civil war
1589.1.1 = { revolt = {}  unrest = 0 } # Coronation of Sigismund III
1591.1.1 = { unrest = 5 } # Kosinski uprising
1593.1.1 = { unrest = 0 }
1594.1.1 = { unrest = 6 } # Nalewajko uprising
1596.1.1 = { unrest = 0 } 
1648.1.1 = { revolt = { type = nationalist_rebels size = 0 }   } # Struggle for liberation, Bogdan Zenon Chmielnicki rebellion
1654.1.1 = { revolt = {}  remove_core = ZAZ }
1655.1.1 = {  } # The Deluge
1660.1.1 = {  }
1772.8.5 = {
	
	
	
	remove_core = PLC
} # First partition of Poland
