#2703 - Lehad Datu





capital = "Lehad Datu"
trade_goods = spices
hre = no
base_tax = 1 
base_production = 1
base_manpower = 1
is_city = yes




discovered_by = chinese
discovered_by = indian
discovered_by = muslim
discovered_by = ottoman

1521.1.1 = { discovered_by = POR }

1672.1.1 = { revolt = { type = revolutionary_rebels size = 0 }  } # Civil war over succession
1673.1.1 = { revolt = {}  }
1703.1.1 = {
	
	
	
	remove_core = BEI
} # Ceded to the Sultanate of Sulu
