#2709 - Tarakan





capital = "Tarakan"
trade_goods = fish
hre = no
base_tax = 1 
base_production = 1
base_manpower = 1
is_city = yes




discovered_by = chinese
discovered_by = indian
discovered_by = muslim
discovered_by = ottoman

1521.1.1 = { discovered_by = POR }

1700.1.1 = {  }
1703.1.1 = {	
	
	
	remove_core = KUT
} # Ceded to the Sultanate of Sulu