#2758 - Illubabor






capital = "Illubabor"
is_city = yes
base_manpower = 1
trade_goods = slaves
hre = no
base_tax = 1 
base_production = 1
discovered_by = east_african
discovered_by = muslim

1650.1.1 = {
	
}
1710.1.1 = {
	
	
	
}