#2775 - Merca






capital = "Merca"
is_city = yes
base_manpower = 1
trade_goods = naval_supplies
hre = no
base_tax = 1 
base_production = 1
add_local_autonomy = 25
discovered_by = east_african
discovered_by = indian
discovered_by = muslim
discovered_by = ottoman

1499.1.1 = { discovered_by = POR } 
1499.1.1 = { revolt_risk = 3 } #Portuguese bombard Mogadishu, do not seize it
1504.1.1 = { revolt_risk = 0 }
1550.1.1 = { discovered_by = TUR }
1612.1.1 = { revolt_risk = 8 } #Somail migrations greatly disrupt region
1615.1.1 = { revolt_risk = 0 }
1705.1.1 = {    trade_goods = grain } #Omanis seize control of Mogadishu and Geledi
