# - Sucre








discovered_by = south_american
discovered_by = andean


capital = "Sucre"
trade_goods = cloth
hre = no
base_tax = 1 
base_production = 1
base_manpower = 1
is_city = yes

1476.1.1 = {
	
	
	
}
1533.8.29 = {	discovered_by = SPA
	
	
	
	
	
}# The death of Atahualpa
1809.7.16 = { revolt = { type = nationalist_rebels size = 0 }  } # Bolivian War of Independence
