# - La Rioja





discovered_by = south_american
discovered_by = andean


capital = "La Rioja"
trade_goods = unknown
hre = no
base_tax = 1 
base_production = 1
base_manpower = 1
native_size = 20
native_ferocity = 2
native_hostileness = 9	

1489.1.1 = {
	
	
	
	is_city = yes
	
	trade_goods = wine
}
1533.8.29 = {
	discovered_by = SPA
	
	
	
	
	
}# The death of Atahualpa
1816.7.9 = {
	
	
	
	remove_core = SPA
} # Argentina is declared independent
