# - Alcantara


discovered_by = south_american

capital = "Alcantara"
trade_goods = unknown
hre = no
base_tax = 1
base_production = 1
base_manpower = 1
native_size = 15
native_ferocity = 1
native_hostileness = 3




1500.1.1 = { discovered_by = POR }
1500.1.26 = { discovered_by = CAS }
1516.1.23 = { discovered_by = SPA }

1648.1.1 = {
	
	
	
	
	
	trade_goods = sugar
	is_city = yes
}
1718.1.1 = { unrest = 6 }
1725.1.1 = { unrest = 0 }
