# 2976 - Perugia, formerly Umbria



 
 
hre = no
base_tax = 1
base_production = 1
trade_goods = wine
base_manpower = 1
capital = "Perugia" 
is_city = yes

discovered_by = western
discovered_by = eastern
discovered_by = muslim
discovered_by = ottoman

1534.1.1 = {
	
	
	
}
1750.1.1 = {  } 
1809.4.10 = {  } # Occupied by French troops
1809.10.14 = {   } # Treaty of Schönbrunn
1814.4.11 = {
	
	
	remove_core = FRA
} # Treaty of Fontainebleau, Napoleon abdicates unconditionally
