#319 - Mentese





capital = "Mughla"
trade_goods = salt
hre = no
base_tax = 1 
base_production = 1
base_manpower = 1
is_city = yes


discovered_by = western
discovered_by = eastern
discovered_by = muslim
discovered_by = nomad_group
discovered_by = ottoman


1402.8.1 = {   }
1424.1.1 = {   }
1481.6.1 = { revolt = { type = pretender_rebels size = 0 }  } # Civil war, Bayezid & Jem
1482.7.26 = { revolt = {}  } # Jem escapes to Rhodes
1509.1.1 = { revolt = { type = revolutionary_rebels size = 0 }  } # Civil war
1513.1.1 = { revolt = {}  }
1520.1.1 = {  }
1623.1.1 = { unrest = 8 } # The empire fell into anarchy, Janissaries stormed the palace
1625.1.1 = { unrest = 0 } # Murad tries to quell the corruption
1690.1.1 = { base_tax = 1 
base_production = 1 } # The Decentralizing Effect of the Provincial System
