#346 - Tafilalt


 


capital = "Tafilalt"
trade_goods = gold
hre = no
base_tax = 1 
base_production = 1
base_manpower = 1
is_city = yes


discovered_by = western
discovered_by = muslim
discovered_by = ottoman
discovered_by = sub_saharan
extra_cost = 16
center_of_trade = 2

1444.1.1 = {
	
	
	
}
1465.1.1 = { unrest = 5 } #Marinid Sultan killed by mob. Mohammed ibn Ali Amrani-Joutey (Idrisid) proclaims himself Sultan. Unrest in the entire country. 
1472.1.1 = {   unrest = 0 } #Wattasids take control over Fez, nominal ruler over much of Morocco.
1549.1.1 = {
	
	
}	#Fall of Fez
1603.8.1 = { unrest = 5 } # The death of the Saadita Ahmad I al-Mansur
1610.1.1 = {
	
	revolt = {
	type = nationalist_rebels
	size = 2
	leader = "Ahmed ibn Abi Mahalli"
	}
}
1613.1.1 = {
	
	revolt = { }
}
1631.1.1 = {
	
	
	
	unrest = 0
}	#Alaouites
1668.9.7 = {
	
	
} #Alaouites reunifies the country
1672.1.1 = { unrest = 4 } # Oppositions against Ismail, & the idea of a unified state
1727.1.1 = { unrest = 0 }
