#40 - Memel





capital = "Memel"
trade_goods = livestock
hre = no
base_tax = 1
base_production = 1
base_manpower = 1
is_city = yes

discovered_by = eastern
discovered_by = western
discovered_by = muslim
discovered_by = ottoman

extra_cost = 10

add_permanent_province_modifier = {
	name = neman_estuary_modifier
	duration = -1
}

1454.2.10 = {  revolt = { type = revolutionary_rebels size = 0 }  } # Thirteen years' war
1466.10.19 = {	revolt = {}
	
	
} # "Peace of Torun", became a Polish fief
1525.2.10 = {
	
	
	remove_core = TEU
	remove_core = POL
	
} # Albert of Prussia
1618.8.28 = {
	
	
	
} # Prussia in a personal union with Brandenburg
 # Great plague
1701.1.18 = {
	
	
	remove_core = BRA
	base_manpower = 1
} # Kingdom of Prussia
1750.1.1 = { base_tax = 1 base_production = 1 }
1757.9.1 = {  } # captured by Russia after Gross-Jägersdorf
1762.1.5 = {  } # Russians withdraw

