#4025 - Vatomandry





 #Fetishism
capital = "Vatomandry"
trade_goods = slaves
hre = no
base_tax = 1 
base_production = 1
base_manpower = 1
is_city = yes
discovered_by = east_african
extra_cost = 8
center_of_trade = 1


1500.8.20 = { discovered_by = POR } #Diego Dias
1817.1.1 = {    }