#X2 - Turpan

		# ruled by a Chagataiid 




capital = "Balikul"
trade_goods = wine
hre = no
base_tax = 1 
base_production = 1
base_manpower = 1
is_city = yes


discovered_by = chinese
discovered_by = nomad_group


1570.1.1 = {
	
	
	
}
1635.1.1 = {
	
	
	
}
1709.1.1 = { discovered_by = SPA }
1755.1.1 = {
	
	
	
}
