#4223 - Hetao






capital = "Otog"
trade_goods = livestock
hre = no
base_tax = 1 
base_production = 1
base_manpower = 1
is_city = yes

discovered_by = chinese
discovered_by = nomad_group

1449.10.1 = {
	
	
}
1454.1.1 = {
	
	
	
} # Mark?rgis Khan of the Gold Family rises to power after Esen's death.
1543.1.1 = { unrest = 8 } # Fighting broke out between the Mongols
1552.1.1 = {
	
	
	
	unrest = 0
} # The Oirads are defeated & Altan Khan reunites the the area.
1586.1.1 = {  } # State religion
1635.4.1 = {
	
	
	
	remove_core = KHA
} # The Later Jin Khanate
1636.5.15 = {
	
	
	
	remove_core = MCH
} # The Qing Dynasty
1682.1.1 = { discovered_by = SPA } #Ferdinand Verbiest
