#426 - Amol





capital = "Amol"
trade_goods = silk
hre = no
base_tax = 1
base_production = 1
base_manpower = 1
is_city = yes


discovered_by = eastern
discovered_by = muslim
discovered_by = ottoman
discovered_by = indian
discovered_by = nomad_group

1596.1.1 = {
	
	
	
} # Shah Abbas Invades
1673.1.1 = { discovered_by = ENG }
1707.5.12 = { discovered_by = GBR }
