#4172 - Jawf



_arabic

capital = "Karah"
trade_goods = livestock
hre = no
base_tax = 1 
base_production = 1
base_manpower = 1
is_city = yes


discovered_by = east_african
discovered_by = muslim
discovered_by = ottoman
discovered_by = indian
discovered_by = nomad_group

1515.1.1 = { discovered_by = POR }
1665.1.1 = { unrest = 4 }
1669.1.1 = { unrest = 2 } # Ottoman attempts to pacify unruly tribes 
1670.1.1 = { unrest = 0 }
