#428 - Rey





capital = "Teheran"
trade_goods = silk
hre = no
base_tax = 1 
base_production = 1
base_manpower = 1
is_city = yes


discovered_by = muslim
discovered_by = ottoman
discovered_by = nomad_group
discovered_by = indian
extra_cost = 8
center_of_trade = 1

1442.1.1 = { #Death of Yusuf Khwaja, governor of Rayy. Appointment of Sultan Muhammad b. Baysunghur as governor of northern Iran.
	
	
	
}
#1446.1.1 #Revolt of Muhammad bin Baysonqor
1451.1.1 = {
	
	
	
	remove_core = TIM
} # Fars and surroundings to Qara Quyunlu
1458.9.1 = { revolt = { type = pretender_rebels size = 0 name = "Hasan Ali's Faction" leader = "Hasan Ali" }  } # Civil war in Qara Quyunlu
1458.12.1 = { revolt = {}  }
1468.6.1 = {  } #Invasion of Abu Said
1469.2.4 = {    remove_core = QAR } #Battle of Qarabagh
1496.2.8 = {  revolt = { type = pretender_rebels size = 0 name = "Muhammad's Faction" leader = "Muhammad Ak Koyunlu" } } # Civil war in Ak Koyunlu
1501.7.1 = {  revolt = { } }
1504.1.1 = {
	
	
	
	remove_core = AKK
} # The Safavids took over
1550.1.1 = { discovered_by = TUR }
1554.1.1 = {  } #Fortified by the Safavids
1673.1.1 = { discovered_by = ENG }
1675.12.1 = { base_tax = 1 
base_production = 1 } # Political fragmentation
1707.5.12 = { discovered_by = GBR }
1747.1.1 = { unrest = 3 } # Shah Nadir is killed, local khanates emerged
1748.1.1 = { unrest = 4 } # The empire began to decline
1779.1.1 = { unrest = 0 } # With the Qajar dynasty the situation stabilized
