#432 - Kerman





capital = "Kerman"
trade_goods = paper
hre = no
base_tax = 1
base_production = 1
base_manpower = 1
is_city = yes


discovered_by = muslim
discovered_by = ottoman
discovered_by = indian
discovered_by = nomad_group

1449.2.1 = { #Conquered by Babur bin Baysunkur
	
	
	remove_core = TIM
}
1458.12.22 = {    } #Abu Said negotiates peace with Jahan Shah and the area falls to Timurids of Samarkand
1469.2.4 = {    remove_core = TIM } #Battle of Qarabagh
1496.2.8 = {  revolt = { type = pretender_rebels size = 1 name = "Muhammad's Faction" leader = "Muhammad Ak Koyunlu" } } # Civil war in Ak Koyunlu
1501.7.1 = {  revolt = { } }
1504.1.1 = {
	
	
	
	remove_core = AKK
} # The Safavids take over, Shi'ism becomes the state religion
1550.1.1 = { discovered_by = TUR }
1673.1.1 = { discovered_by = ENG }
1707.5.12 = { discovered_by = GBR }
1719.1.1 = { unrest = 3 } # Baluchi plunder Kerman
1720.1.1 = { unrest = 0 }
1726.1.1 = { unrest = 4 } # Safavid rebellion against Afghans in Kermna
1728.1.1 = { unrest = 0 }
1747.1.1 = { unrest = 3 } # Shah Nadir is killed, local khanates emerged
1748.1.1 = { unrest = 4 } # The empire begin to decline
1779.1.1 = { unrest = 0 } # With the Qajar dynasty the situation stabilizes
