#4329 - Fasa and Jahrum





capital = "Fasa"
trade_goods = silk #And Paper in Jahrum
hre = no
base_tax = 1
base_production = 1
base_manpower = 1
is_city = yes


discovered_by = muslim
discovered_by = ottoman
discovered_by = indian
discovered_by = nomad_group

1447.3.13 = { #Shah Rokh dies in the field trying to put down the rebellion of Muhammad bin Baysonqor
	
	
	
}
1451.1.1 = {
	
	
	
	remove_core = QOM
	remove_core = TIM
} # Fars and surroundings to Qara Quyunlu
1458.9.1 = { unrest = 5 } # Civil war in Qara Quyunlu
1458.12.1 = { unrest = 0 }
1468.6.1 = {  } #Invasion of Abu Said
1469.2.4 = {    remove_core = QAR } #Battle of Qarabagh
1474.1.1 = { unrest = 3 } # Rebellion
1475.1.1 = { unrest = 0 }
1496.2.8 = {  revolt = { type = pretender_rebels size = 0 name = "Muhammad's Faction" leader = "Muhammad Ak Koyunlu" } } # Civil war in Ak Koyunlu
1501.7.1 = {  revolt = { } }
1504.1.1 = {
	
	
	
	remove_core = AKK
} # The Safavids took over
1550.1.1 = { discovered_by = TUR }
1673.1.1 = { discovered_by = ENG }
1677.1.1 = { discovered_by = FRA }
1707.5.12 = { discovered_by = GBR }
1747.1.1 = { unrest = 3 } # Shah Nadir is killed, local khanates emerged
1748.1.1 = { unrest = 4 } # The empire began to decline
1762.1.1 = {
	fort_15th = no
	
}
1779.1.1 = { unrest = 0 } # With the Qajar dynasty the situation stabilized
1791.1.1 = { fort_16th = no }
