#4365 - Mann



_scottish

hre = no
base_tax = 1 
base_production = 1
trade_goods = fish
base_manpower = 1
capital = "Castletown"
is_city = yes



discovered_by = western
discovered_by = muslim
discovered_by = ottoman
discovered_by = eastern


1585.1.1 = {  }
1707.5.12 = {
	
	
	
}
