#4397 - Yawnghwe





capital = "Yawnghwe"
trade_goods = cotton
hre = no
base_tax = 1 
base_production = 1
base_manpower = 1
is_city = yes




discovered_by = chinese
discovered_by = indian


1502.1.1 = {
	
	
	
	remove_core = HSI
}
1535.1.1 = { discovered_by = POR }
1554.1.1 = {  }
1557.11.1 = {  } # The Shan dynasty is overthrown
1563.4.1 = {  }
1599.1.1 = {
	
	
}
1605.1.1 = {
	
	
}
1739.1.1 = { unrest = 5 } # Rebellion
1740.1.1 = { unrest = 0 }
1752.1.1 = {
	
	
}
1754.1.1 = {
	
	
}
