#4405 - Katha





capital = "Katha"
trade_goods = tea
hre = no
base_tax = 1
base_production = 1
base_manpower = 1
is_city = yes




discovered_by = chinese
discovered_by = indian


1502.1.1 = {
	
	
	
	remove_core = MYA
}
1554.1.1 = {  }
1559.1.1 = {  }
1563.4.1 = {  }
1599.1.1 = {
	
	
}
1605.1.1 = {
	
	
}
1655.1.1 = { discovered_by = SPA }#Novus Atlas Sinensis
1752.1.1 = {
	
	
}
1754.1.1 = {
	
	
}
1760.1.1 = { discovered_by = GBR }
