#4442 - Washim





capital = "Washim"
trade_goods = cloth
hre = no
base_tax = 1
base_production = 1
base_manpower = 1
is_city = yes


discovered_by = nomad_group
discovered_by = indian
discovered_by = muslim
discovered_by = chinese
discovered_by = ottoman

1490.1.1 = {
	
	
	remove_core = BAH
}# The Breakup of the Bahmani sultanate
1498.1.1 = { discovered_by = POR }
1572.1.1 = {  } # captured by Ahmednagar
1574.1.1 = {
	
	
} # captured by Ahmednagar
1595.1.1 = {  } # captured by Mughal Empire
1596.1.1 = {
	
	
} # captured by Mughal Empire
1615.1.1 = {  } # Ahmednagar Anti-Mughal Campaign
1622.1.1 = {
	
	
	remove_core = AHM
} # Ahmednagar Anti-Mughal Campaign
1622.3.1 = {
	
	revolt = {
		type = pretender_rebels
		size = 0
		name = "Khurrams Faction"
		leader = "Shah Jahan Timurid"
	}
} #Should be named Khurram at this point
1622.8.15 = {
	
	revolt = { }
} #Khurram flees on into Ahmednagar, Golconda and then Orissa. Eventually attacks Mughal Bengal.
#1636.1.1 = { capital = "Illichpur" } #Mughal re-organization of Deccan into 4 subahs
1646.1.1 = {  }
1650.1.1 = {  }
1658.1.15 = {
	
	revolt = {
		type = pretender_rebels
		size = 0
		name = "Aurangzeb's Faction"
		leader = "Aurangzeb Alamgir Timurid"
	}
} # Aurangzeb joins in rebelion against his father
1658.6.8 = {
	
	revolt = { }
} #Shah Jahan surrenders and becomes the prisoner of his son Aurangzeb
1712.1.1 = {  }	#Viceroyalty of the Deccan
1724.1.1 = {
	
	
	remove_core = MUG
} # Asif Jah declared himself Nizam-al-Mulk
1752.1.1 = {
	
	
	
}
1804.1.1 = {
	
	
	remove_core = MAR
}
