#4449 - Jammu





capital = "Jammu"
trade_goods = silk #
hre = no
base_tax = 1
base_production = 1
base_manpower = 1
is_city = yes

discovered_by = indian
discovered_by = muslim
discovered_by = ottoman
discovered_by = nomad_group
discovered_by = chinese


1500.1.1 = {  }
1589.7.28 = {
	
	
	
} # Integrated into the Mughal Empire
1690.1.1 = { discovered_by = ENG }
1707.5.12 = { discovered_by = GBR }
1738.1.1 = {  } # Captured by Persia, Nadir Shah
1739.5.1 = {  } # Captured by Persia, Nadir Shah
1747.10.1 = {
	
	
	
	remove_core = MUG
} # Ahmad Shah established the Durrani empire
1755.1.1 = {
	
	
} # Governor declares independence
1762.1.1 = {
	
	
} # Revolt beaten
1809.1.1 = {
	
	
} # Governor independent
1819.1.1 = {
	
	
	
} # Sikh annexation
