#4470 - Soumelpur





capital = "Soumelpur"
trade_goods = iron
hre = no
base_tax = 1 
base_production = 1
base_manpower = 1
is_city = yes

discovered_by = indian
discovered_by = nomad_group
discovered_by = muslim 
discovered_by = ottoman
discovered_by = chinese

1627.1.1 = { discovered_by = POR }

1674.1.1 = {
	
	
	
}
1707.3.15 = {
	
	
	
	remove_core = MUG
}
1760.1.1 = {
	
	
	
} # Given to GBR by Mir Qasim
1817.1.1 = {
	revolt = {
		type = nationalist_rebels
		size = 1
	}
}
1818.1.1 = { revolt = { } }
