#4542 - Lubnie





hre = no
base_tax = 1
base_production = 1
trade_goods = grain
base_manpower = 1
capital = "Lubnie"
is_city = yes
#add_local_autonomy = 10



discovered_by = eastern
discovered_by = western
discovered_by = muslim
discovered_by = ottoman
discovered_by = nomad_group

1569.7.1 = {
	
	
	
} # Union of Lublin
1648.1.1 = { revolt = { type = anti_tax_rebels size = 2 }  } # Antifeudal insurrection
1654.1.1 = { revolt = {}  } 
1667.1.1 = {
	
	
	remove_core = PLC
} # Part of the Russian empire
