# No previous file for Yohualtepec





is_city = yes

capital = "Yohualtepec"
trade_goods = dyes
hre = no
base_tax = 1 
base_production = 1
base_manpower = 1
native_size = 5
native_ferocity = 1
native_hostileness = 2



discovered_by = mesoamerican


1458.1.1 = {
 	
	 
	
} #Moctezuma I attack Coixtlahuaca on a pretext of Aztec merchants mistreatment.
1518.1.1 = {  }
1521.8.13 = {
	
	
	
	
	
} # Fall of Tenochtitlan
1810.9.16 = {    } # Mexican War of Independence