# Tulutingshan




#


capital = "Tulutingshan"
trade_goods = fur
hre = no
base_tax = 1 
base_production = 1
base_manpower = 1
is_city = yes



discovered_by = chinese
discovered_by = nomad_group

1643.1.1 = { discovered_by = RUS }

1653.1.1 = {	
	
	
	

} # Pyotr Beketov
1689.8.27 = {	discovered_by = QNG
	
	
	
	
	
	trade_goods = fish
} # Treaty of Nerchinsk
