




base_tax = 1 
base_production = 1
capital = "Opole"
is_city = yes
trade_goods = grain
base_manpower = 1

discovered_by = KAZ
discovered_by = CRI
discovered_by = GOL
discovered_by = AST
discovered_by = QAS
discovered_by = western
discovered_by = eastern
discovered_by = muslim
discovered_by = ottoman


1523.1.1 = {  }
1618.1.1 = { unrest = 5 } # Religious struggles
1648.1.1 = { unrest = 0 }
1675.11.21 = {
	
	
	
} # Annexed by the Habsburgs, death of the last Piast duke
1700.1.1 = {
	base_tax = 1 
	base_production = 1
}
1740.1.1 = {  } # 1st Silesian war against Austria
1745.1.1 = {   } # Peace of Dresden, 2nd Silesian war
1750.1.1 = { base_tax = 1 
base_production = 1 base_manpower = 1}
1763.1.1 = { remove_core = HAB } # End of 3rd Silesian war
1806.7.12 = { hre = no } # The Holy Roman Empire is dissolved
