#Kendal






capital = "Kendal"
trade_goods = naval_supplies
hre = no
base_tax = 1 
base_production = 1
base_manpower = 1
is_city = yes




discovered_by = chinese
discovered_by = indian
discovered_by = muslim
discovered_by = ottoman


1475.1.1 = {
	
	
	
	remove_core = MAJ
	
} # Demak Sultanate was established
1509.1.1 = { discovered_by = POR }
1587.1.1 = {
	
	
	
	remove_core = DMK
} # Mataram Sultanate was established
1613.1.1 = { discovered_by = NED } # The Dutch arrived
1631.1.1 = { unrest = 5 } # Rebellion against Mataram rule
1636.1.1 = { unrest = 0 }
