#491 - Curacao



capital = "Curacao"
trade_goods = unknown
hre = no
base_tax = 1
base_production = 1
base_manpower = 1
native_size = 5
native_ferocity = 1
native_hostileness = 6
discovered_by = CAB
discovered_by = ARW
extra_cost = 8
center_of_trade = 1

1499.1.1 = {
	discovered_by = CAS
	
	
	
	
	
	is_city = yes
	trade_goods = sugar
} # Christopher Columbus 
1516.1.23 = {
	discovered_by = SPA
	
	
	
	remove_core = CAS
}
1634.1.1 = {
	
	
	
	
	
	capital = "Punda"
	remove_core = SPA
} # Dutch occupation, Punda is founded ( later: Willemstad )
1807.1.1 = {
	
	
	
	remove_core = NED
} # Occupied by British forces
1815.6.9 = {
	
	
	
	remove_core = GBR
} # Restored to the Netherlands
