#4936 - Kauai






hre = no
capital = "Tapaa"
is_city = yes
trade_goods = fish
base_tax = 1 
base_production = 1
base_manpower = 1
discovered_by = polynesian_tech


1555.1.1 = { discovered_by = SPA }
1778.1.1 = { discovered_by = GBR }