#502 - Trinidad



capital = "Trinidad"
trade_goods = unknown
hre = no 
base_tax = 1 
base_production = 1
base_manpower = 1
native_size = 25
native_ferocity = 2
native_hostileness = 9 



discovered_by = south_american


1498.7.31 = {
	discovered_by = CAS
	
	
	
	
	
	is_city = yes
	trade_goods = cocoa
} # Christopher Columbus
1516.1.23 = {
	discovered_by = SPA
	
	
	
	remove_core = CAS
}
1680.1.1 = { capital = "Port-of-Spain" }
1690.1.1 = { unrest = 5 } # Religious convertion of the natives
1699.1.1 = { unrest = 0 revolt = { type = nationalist_rebels size = 2 }  } # Arena Massacre, Indian uprising
1700.1.1 = {
	revolt = {}
	
}
1797.10.18 = {  } # Occupied by British forces
1802.3.25 = {
	
	
	remove_core = SPA
} # Treaty of Amiens
