#530 - South Konkan (Dabhol, Rajapur, up to and including Bankot)





capital = "Dabhol"
trade_goods = spices
hre = no
base_tax = 1 
base_production = 1
base_manpower = 1
is_city = yes


add_local_autonomy = 75
discovered_by = indian
discovered_by = nomad_group
discovered_by = muslim
discovered_by = ottoman
discovered_by = chinese
discovered_by = east_african

1380.1.1 = {
	
	
} # Taken by Harihara II
1444.1.1 = {  }
1469.1.1 = {  } # Taken by Bahmanis
1470.1.1 = {  } # Taken by Bahmanis
1490.1.1 = {
	
	
	remove_core = BAH
} # The Breakup of the Bahmani sultanate
1498.1.1 = { discovered_by = POR }
1650.1.1 = {
	
	
	 #Maratha Identity
}
1818.6.3 = {
	
	
	
	remove_core = MAR
}
