#536 - Madurai





capital = "Madurai"
trade_goods = silk
hre = no
base_tax = 1
base_production = 1
base_manpower = 1
add_brahmins_or_church_effect = yes
is_city = yes

discovered_by = east_african
discovered_by = indian
discovered_by = muslim
discovered_by = ottoman
discovered_by = nomad_group
discovered_by = chinese
add_local_autonomy = 25
extra_cost = 8
center_of_trade = 1

1378.1.1 = {
	
	
}
1405.1.1 = { discovered_by = chinese }
1428.1.1 = {   }
1498.1.1 = { discovered_by = POR }
1529.1.1 = {
	
	revolt = {
		type = pretender_rebels size = 2
		leader = "Vira Narisimha Saluva"
	}
}
1530.1.1 = {
	
	revolt = { }
}
1543.1.1 = {
	
	revolt = {
		size = 0
		type = nationalist_rebels
	}
}
1555.1.1 = {
	
	revolt = { }
}
1565.1.26 = {
	
	
} # The Vijayanagar empire collapses, the Nayaks proclaimed themselves rulers
1736.4.1 = {
	
	
	
	remove_core = MAD
}
1741.1.1 = {
	
	
} #Marathas
1743.1.1 = {
	
	
	#Dutch traders expelled
} #Retaken by Nizam, annexed to Carnatic
1759.1.1 = {
	
	
	
} #Mysore
1799.1.1 = {
	
	
	
	remove_core = MYS
	add_to_trade_company = GBR
	add_trade_company_investment = {
		investment = company_depot
		investor = GBR
	}
	add_trade_company_investment = {
		investment = brokers_exchange
		investor = GBR
	}
} # British
