#541 - Vijayanagar





capital = "Vijayanagar"
trade_goods = grain
hre = no
base_tax = 1 
base_production = 1
base_manpower = 1
is_city = yes


discovered_by = nomad_group
discovered_by = indian
discovered_by = muslim
discovered_by = ottoman
discovered_by = chinese
extra_cost = 8
center_of_trade = 1

1498.1.1 = { discovered_by = POR }
1565.1.26 = {  }
1565.7.1 = {  }
1638.1.1 = {
	
	
	remove_core = VIJ
}
1650.1.1 = { capital = "Bellary" }
1685.1.1 = {  }
1686.1.1 = {   }
1712.1.1 = {  }	#Viceroyalty of the Deccan
1724.1.1 = {
	
	
	remove_core = MUG
} # Asif Jah declared himself Nizam-al-Mulk
1763.1.1 = {
		
	
	
	remove_core = DEC
}
1799.1.1 = {
	
	
}
1800.1.1 = {
	
	
	
}	#Ceded districts
