#553 - Sambalpur





capital = "Sambalpur"
trade_goods = cloth
hre = no
base_tax = 1
base_production = 1
base_manpower = 1
is_city = yes

 
discovered_by = indian
discovered_by = muslim
discovered_by = ottoman
discovered_by = nomad_group
discovered_by = chinese
extra_cost = 8
center_of_trade = 1

1494.1.1 = {
	 
	
}
1498.1.1 = { discovered_by = POR }
1752.1.1 = {
	
	
	
} # Marathas
1803.1.1 = {
	
	
	
}
1806.1.1 = {
	
	
} # Restored to Nagpur
1816.1.1 = {
	
	
	remove_core = NAG
}
