#585 - Toungoo





capital = "Toungoo"
trade_goods = chinaware
hre = no
base_tax = 1
base_production = 1
base_manpower = 1
is_city = yes




discovered_by = chinese
discovered_by = indian

1535.1.1 = { discovered_by = POR }

1560.1.1 = {  }
1745.1.1 = {
	
	
	
}
1755.1.1 = {
	
	
	remove_core = PEG
}
