#624 - Banten






capital = "Banten"
trade_goods = spices
hre = no
base_tax = 1 
base_production = 1
base_manpower = 1
is_city = yes
center_of_trade = 1



discovered_by = chinese
discovered_by = indian
discovered_by = muslim
discovered_by = ottoman

1509.1.1 = { discovered_by = POR }
1521.1.1 = { discovered_by = SPA }

1527.1.1 = {
	
	
	
	remove_core = SUN
} # Conquered by the Cirebonese Army and Banten Sultanate was established
1530.1.1 = {  }
1602.1.1 = { discovered_by = ENG } # English settlement
1604.1.1 = {  }
1707.5.12 = { discovered_by = GBR }
