#653 - Lanao



capital = "Marawi"
trade_goods = spices
is_city = yes
hre = no
base_tax = 1 
base_production = 1
base_manpower = 1




discovered_by = chinese

1450.1.1 = {  }
1520.1.1 = {
	
	
} #Sultanates of Lanao
1521.1.1 = { discovered_by = SPA }
1639.4.1 = {
	
	
	
} # Conquest by Spain
