#655 - Palawan



capital = "Palawan"
trade_goods = sugar
hre = no
base_tax = 1
base_production = 1
base_manpower = 1
is_city = yes
discovered_by = chinese



add_local_autonomy = 25

1521.1.1 = { discovered_by = SPA } # Ferdinand Magellan 
1749.1.1 = {
	
	
	
	
} # Palawan is ceded to Spain
1774.1.1 = {  }
