#662 - Yunnan






capital = "Kunming"
trade_goods = copper
hre = no
base_tax = 1 
base_production = 1
base_manpower = 1
is_city = yes

 #More than 1 Weisuo



discovered_by = chinese
discovered_by = indian
discovered_by = nomad_group

1655.1.1 = { discovered_by = SPA }#Novus Atlas Sinensis

1659.1.3 = {
	
	
}
1661.6.1 = {
	
	
	
	remove_core = MNG
} # The Three Feudatories
1681.10.1 = {
	
	
	
}
