#697 - Datong






capital = "Datong"
trade_goods = iron
hre = no
base_tax = 1
base_production = 1
base_manpower = 1
is_city = yes

 #the Nine Garrisons
discovered_by = chinese
discovered_by = nomad_group

1608.1.1 = { discovered_by = SPA }
1628.1.1 = { unrest = 6 } # Li Zicheng rebellion
1644.1.1 = {
	unrest = 0
	
	
	
} # Li Zicheng's Shun empire
1644.10.3 = {
	
	
	
}
1649.5.1 = {
	
	
}
1650.11.11 = {
	
	
}
1662.1.1 = { remove_core = MNG }
