#723 - Xilin Gol

	# The Oirads united much of Mongolia




capital = "Xilin Gol"
trade_goods = livestock
hre = no
base_tax = 1 
base_production = 1
base_manpower = 1
is_city = yes
discovered_by = chinese
discovered_by = nomad_group


1552.1.1 = {
	
	
	
} # The Oirads are defeated & Altan Khan reunites the the area.
1608.1.1 = { discovered_by = SPA }
1632.5.1 = {
	
	
	
	remove_core = KHA
} # The Later Jin Khanate
1636.5.15 = {
	
	
	
	remove_core = MCH
} # The Qing Dynasty
1682.1.1 = { discovered_by = SPA } #Ferdinand Verbiest
