#738 - Taiwan



capital = "Sakam"
trade_goods = unknown
hre = no
base_tax = 1 
base_production = 1
base_manpower = 1
native_size = 60
native_ferocity = 1
native_hostileness = 5



discovered_by = chinese
discovered_by = MCH
discovered_by = KHA
discovered_by = OIR
discovered_by = QNG

1521.1.1 = { discovered_by = SPA }
1544.1.1 = { discovered_by = POR }

1624.1.1 = {
	
	
	
	is_city = yes
	trade_goods = chinaware
	add_to_trade_company = NED
	add_trade_company_investment = {
		investment = company_administration
		investor = NED
	}
	add_trade_company_investment = {
		investment = company_depot
		investor = NED
	}
}
1626.1.1 = {  } # Spanish occupation
1642.1.1 = {  } # The Spanish settlers are driven out by the Dutch
1662.1.1 = {
	
	
	
	
} # Captured by Zheng Chenggong
1683.1.1 = {
	
	
	
	remove_core = MNG
} # Submitted to Manchu control
1786.1.1 = { revolt_risk = 5 } # Rebellion
1788.1.1 = { revolt_risk = 0 }
