#739 - Kashgar






capital = "Kashgar"
trade_goods = wool
hre = no
base_tax = 1 
base_production = 1
base_manpower = 1
is_city = yes

discovered_by = chinese
discovered_by = indian
discovered_by = muslim
discovered_by = ottoman
discovered_by = nomad_group
extra_cost = 16
center_of_trade = 2

1669.1.1 = {    } # The Oirads
1682.1.1 = {
	
	
	
}
1755.1.1 = {
	
	
	 
}
1759.1.1 = {    } # Part of the Manchu empire
