#804 - Puno





capital = "Hatuncolla"
trade_goods = gold
is_city = yes
hre = no
base_tax = 1 
base_production = 1
base_manpower = 1




discovered_by = south_american
discovered_by = andean


1448.1.1 = {
	capital = "Puno"
	
	
	
}
1467.1.1 = {
	
	
	
}
1533.8.29 = {
	discovered_by = SPA
	
	
	
	
	
}# The death of Atahualpa
1537.1.1 = { unrest = 8 } # Fighting breaks out between the forces of Pizzaro & those of Almagro
1538.1.1 = { unrest = 5 } # Almagro is defeated & executed
1541.1.1 = { unrest = 6 } # Pizzaro is assassinated by supporters of Almagro, his brother assumes control
1548.1.1 = { unrest = 0 } # Gonzalo Pizzaro is also executed & Spain regains control
1780.1.1 = { unrest = 7 } # Uprising of Tupca Amaru II
1781.5.1 = { unrest = 0 }
1809.7.16 = { revolt = { type = nationalist_rebels size = 0 }  } # Bolivian War of Independence
