#811 - Jauja





capital = "Jauja"
trade_goods = wool
hre = no
base_tax = 1 
base_production = 1
base_manpower = 1
is_city = yes




discovered_by = south_american
discovered_by = andean


1460.1.1 = {
	
	
	
}
1467.1.1 = {
	
	
	
}
1533.8.29 = {
	discovered_by = SPA
	
	
	
	
	
}# The death of Atahualpa
1537.1.1 = { unrest = 8 } # Fighting breaks out when Almagro seizes Cuzco
1538.1.1 = { unrest = 5 } # Almagro is defeated & executed
1541.1.1 = { unrest = 6 } # Pizzaro is assassinated by supporters of Almagro, his brother assumes control
1548.1.1 = { unrest = 0 } # Gonzalo Pizzaro is also executed & Spain regains control
