#848 - Tohancapan





capital = "Tohancapan"
trade_goods = spices
hre = no
base_tax = 1 
base_production = 1
base_manpower = 1
is_city = yes




discovered_by = mesoamerican


1450.1.1 = {
 	
	 
	
} #Moctezuma I expand the empire along the coast
1500.1.1 = {  }
1517.1.1 = { discovered_by = SPA }
1521.8.13 = {
	
	
	
	
	
} # Fall of Tenochtitlan
1810.9.16 = {    } # Mexican War of Independence
