#856 - Zacatecas

 

is_city = yes



capital = "Zacatecas" 
trade_goods = gold
hre = no
base_tax = 1
base_production = 1
base_manpower = 1



discovered_by = mesoamerican


1546.1.1 = {
	discovered_by = SPA
	
	
	
	
	
	trade_goods = gold
} # First discoveries of silver 
1810.9.16 = {    } # Mexican War of Independence
