#936 - Cheraw





capital = "Cheraw"
trade_goods = tobacco
hre = no
base_tax = 1 
base_production = 1
base_manpower = 1
native_size = 10
native_ferocity = 7
native_hostileness = 2
is_city = yes




discovered_by = north_american

1673.1.1 = { discovered_by = ENG } # James Needham and Gabriel Arthur
1707.5.12 = { discovered_by = GBR }
1755.1.1 = {
	
	
	
	trade_goods = tobacco
	
	 
}

1776.7.4 = {
	
	
	 
} #Declaration of independence
1782.11.1 = {
	remove_core = GBR 
	unrest = 0
} # Preliminary articles of peace, the British recognized American independence

