#939 - Pennyrile



capital = "Pennyrile"
trade_goods = unknown
hre = no
base_tax = 1
base_production = 1
base_manpower = 1
native_size = 5
native_ferocity = 1
native_hostileness = 6



discovered_by = north_american

1444.1.1 = { tribal_ }
1682.1.1 = { discovered_by = FRA } # Estimated
1750.1.1 = { discovered_by = GBR } # Thomas Walker
1786.1.10 = {
 
	
	
	
	 
} #Treaty of Hopewell (with the Chickasaw), come under US authority
