# 95 Breda - Principal cities: Breda




is_city = yes
capital = "Breda"



base_tax = 1
base_production = 1
trade_goods = cloth
base_manpower = 1

discovered_by = eastern
discovered_by = western
discovered_by = muslim
discovered_by = ottoman

1477.1.5 = {    }
1519.1.12 = {    remove_core = HAB }
1549.11.4 = {    remove_core = SPA }
1572.1.1 = {  }
1577.2.12 = { unrest = 16 } # 'Perpetual Edict' (Eeuwig Edict) accepted by Don Juan
1581.7.2 = {  } # Alessandro Farnese takes Breda
1590.3.4 = {  } # Breda is retaken after a succesful diversion
1648.10.24 = { hre = no } # The Peace of Westphalia
1672.5.15 = {  } # France blitzes through the Lowlands in the Franco-Dutch War
1678.8.10 = {  } # Peace of Nijmegen (Netherlands-France)
1681.1.1 = { base_tax = 1
base_production = 1 } # Protestants expelled from France
1747.9.18 = {  } # French troops storm and take Bergen-op-Zoom
1748.10.18 = {  } # Peace of Aachen
1810.7.10 = {
	
	
	
} # Annexed by France
1813.11.30 = {
	
	
	remove_core = FRA
} # William returns to the Netherlands
