# 97 - North Holland - Principal cities: Amsterdam, Haarlem




capital = "Amsterdam"
is_city = yes



base_tax = 1
base_production = 1
trade_goods = cloth
base_manpower = 1
discovered_by = eastern
discovered_by = western
discovered_by = muslim
discovered_by = ottoman
extra_cost = 16
center_of_trade = 2

1477.1.5 = {    }
1519.1.12 = {    remove_core = HAB }
1549.11.4 = {    remove_core = SPA }
1572.1.1 = {  }
1585.9.1 = { base_production = 1 } # Amsterdam becomes the beacon of the Lowlands
1590.1.1 = { base_manpower = 1 } # Professionalisation of the Army
1600.1.1 = {
	add_permanent_province_modifier = {
		name = "birthplace_of_global_trade"
		duration = -1
	}
}
1648.10.24 = { hre = no } # The Peace of Westphalia
1681.1.1 = { base_tax = 1 base_production = 1 } # Protestants expelled from France
1786.1.1 = { unrest = 7 } # Unrest in the Netherlands
1786.5.1 = { unrest = 0 revolt = { type = nationalist_rebels size = 2 }  } # 'The Patriots' rout the Dutch army and capture Amsterdam & Rotterdam
1786.10.13 = { revolt = {}  } # With the help of 20,000 Prussians, the Dutch government regains control
1810.7.10 = {
	
	
	
} # Annexed by France
1813.11.30 = {
	
	
	remove_core = FRA
} # William returns to the Netherlands
